DGEAnalysis
…
## # A tibble: 28,684 x 6
##    N     ID                     logFC logCPM   PValue   FDR
##    <chr> <chr>                  <dbl>  <dbl>    <dbl> <dbl>
##  1 1     TRINITY_DN32955_c3_g1 -12.7    3.88 0.000208     1
##  2 2     TRINITY_DN31626_c1_g1 -12.1    3.26 0.000365     1
##  3 3     TRINITY_DN27665_c9_g1 -11.5    2.68 0.000626     1
##  4 4     TRINITY_DN25258_c1_g2 -11.2    2.36 0.000841     1
##  5 5     TRINITY_DN23844_c1_g1 -10.9    2.12 0.00105      1
##  6 6     TRINITY_DN23308_c0_g1  -9.26   2.85 0.00124      1
##  7 7     TRINITY_DN29957_c3_g2 -10.6    1.82 0.00139      1
##  8 8     TRINITY_DN26420_c2_g7 -10.4    1.63 0.00166      1
##  9 9     TRINITY_DN25895_c0_g1 -10.3    1.53 0.00182      1
## 10 10    TRINITY_DN14405_c0_g1 -10.3    1.51 0.00185      1
## # ... with 28,674 more rows
…
